<?xml version="1.0" encoding="utf-8"?>
<!-- Generator: Adobe Illustrator 24.1.1, SVG Export Plug-In . SVG Version: 6.00 Build 0)  -->
<svg version="1.1" id="Layer_1" xmlns="http://www.w3.org/2000/svg" xmlns:xlink="http://www.w3.org/1999/xlink" x="0px" y="0px"
	 viewBox="0 0 512 512" style="enable-background:new 0 0 512 512;" xml:space="preserve">
<style type="text/css">
	.st0{fill:#DBDBDB;}
</style>
<path class="st0" d="M256,1c140.8,0,255,114.2,255,255S396.8,511,256,511S1,396.8,1,256S115.2,1,256,1z M103.6,343.1
	c37.4,55.9,93.6,91.4,156.5,91.4s119.1-35.5,156.5-91.4C328.4,261,191.7,261,103.6,343.1z M256,230.5c42.2,0,76.5-34.3,76.5-76.5
	S298.2,77.5,256,77.5s-76.5,34.3-76.5,76.5S213.8,230.5,256,230.5z"/>
</svg>
